-8 976
-48 936
992
-8 976
-48 56 -40 824
-40 944
-48 936
-24 960
-48 -8 920
40 -24 -16 888
-48 -8 16 -8 880
48 -16 40 -24 832
-40 944
-32 -8 -24 904
-40 944
-16 -48 912
-16 968
-32 952
-32 -16 -8 912
-32 32 -32 872
-8 -16 952
88 -16 872
992
-32 -16 -32 -16 16 -48 -48 728
-40 -8 -8 912
-32 -8 936
-24 -40 -32 -24 840
104 -8 48 -48 752
-24 -16 936
16 -8 952
