-56 -16 -32 864
-24 -56 -40 848
-56 32 -24 -24 824
120 -40 -8 800
32 -8 72 -48 800
-40 -40 -32 -8 -56 56 -24 680
-64 -24 -8 -40 -24 24 -16 -24 -56 640
-16 96 -48 808
-24 32 -32 880
8 -56 16 -32 848
-8 -16 -24 -56 -56 -48 -16 -40 -32 -8 -40 -40 -32 472
-48 -16 -24 -24 -48 792
40 -48 24 -8 840
-8 -16 -8 -48 -24 -40 -16 40 -24 -8 680
-32 -24 24 -40 -32 8 -24 -8 736
-48 48 -8 -32 -40 -16 24 -16 696
-16 -16 24 -16 888
32 -16 16 -8 -32 -24 56 -56 688
-56 24 -40 -24 -24 -8 -40 720
-8 -16 -40 -8 888
